Chapter 3 Data with dplyr | R Introduction
…
load("start_pirus.Rdata")

3.0.1 mutate

Neue Variablen erstellen mit mutate()

Mit mutate() wird/werden eine oder mehrere neue Variable(n) erzeugt und an den Datensatz hinten angefügt.

Beispiel

Statt dem Alter wollen wir nun das Geburstjahr haben. Einfacherweise ziehen wir das jetzige Jahr (2018) vom Alter ab um das Geburtsjahr zu erhalten. Die neue Variable nennen wir birth.

mutate(start_pirus, birth = 2018 - age)

## # A tibble: 1,865 x 19
##    subject_id date         age  male gender married student unemployed
##         <dbl> <date>     <dbl> <dbl>  <dbl>   <dbl>   <dbl>      <dbl>
##  1       1000 2002-05-08    32     1      2       1       1          0
##  2       1001 2001-11-25    20     1      2       0       1          0
##  3       1002 1997-05-01    28     1      2       1       0          0
##  4       1005 1993-04-10    25     1      2       1       0          0
##  5       1006 1993-03-04    25     1      2       0       0          0
##  6       1010 2003-03-01    27     1      2       1       0          0
##  7       1013 2002-09-10    23     1      2       1       0          1
##  8       1014 2002-09-15    28     1      2       1       0          0
##  9       1015 2002-10-21    26     1      2       1       0          0
## 10       1016 2002-09-18    25     1      2       1       0          0
## # … with 1,855 more rows, and 11 more variables: mental <dbl>,
## #   abuse_child <dbl>, crime_history <fct>, violent <dbl>, extent <dbl>,
## #   terror_group <chr>, radicalization <dbl>, clique <dbl>,
## #   terror_type <fct>, year <dbl>, birth <dbl>

Weisen wir den Datensatz wieder start_pirus zu, so wird unsere Veränderung auch im Objekt festgehalten

start_pirus <- mutate(start_pirus, birth = 2018 - age)

start_pirus

## # A tibble: 1,865 x 19
##    subject_id date         age  male gender married student unemployed
##         <dbl> <date>     <dbl> <dbl>  <dbl>   <dbl>   <dbl>      <dbl>
##  1       1000 2002-05-08    32     1      2       1       1          0
##  2       1001 2001-11-25    20     1      2       0       1          0
##  3       1002 1997-05-01    28     1      2       1       0          0
##  4       1005 1993-04-10    25     1      2       1       0          0
##  5       1006 1993-03-04    25     1      2       0       0          0
##  6       1010 2003-03-01    27     1      2       1       0          0
##  7       1013 2002-09-10    23     1      2       1       0          1
##  8       1014 2002-09-15    28     1      2       1       0          0
##  9       1015 2002-10-21    26     1      2       1       0          0
## 10       1016 2002-09-18    25     1      2       1       0          0
## # … with 1,855 more rows, and 11 more variables: mental <dbl>,
## #   abuse_child <dbl>, crime_history <fct>, violent <dbl>, extent <dbl>,
## #   terror_group <chr>, radicalization <dbl>, clique <dbl>,
## #   terror_type <fct>, year <dbl>, birth <dbl>
…
Also in folgender Form:

ifelse(logischer Test, was passiert wenn zutrifft, was passiert wenn nicht zutrifft)

Das können wir in Kombination mit mutate benutzen.

Beispiel:

Nehmen wir an, dass wir die Altervariable als eine dummy Variable (zwei Ausprägungen) benutzen wollen. Am besten geht das mit ifelse(). Kodieren wir doch einmal die 18-40 Jährigen als eine Gruppe und über 40 Jährige als eine andere Gruppe.

Eine Variable u40 erstellen welche die 18 bis 40 Jährigen und die über 40 Jährigen in eine Gruppe teilt.

mutate(start_pirus, u40 = ifelse(age <= 40, "younger" ,"older"))

## # A tibble: 1,865 x 20
##    subject_id date         age  male gender married student unemployed
##         <dbl> <date>     <dbl> <dbl>  <dbl>   <dbl>   <dbl>      <dbl>
##  1       1000 2002-05-08    32     1      2       1       1          0
##  2       1001 2001-11-25    20     1      2       0       1          0
##  3       1002 1997-05-01    28     1      2       1       0          0
##  4       1005 1993-04-10    25     1      2       1       0          0
##  5       1006 1993-03-04    25     1      2       0       0          0
##  6       1010 2003-03-01    27     1      2       1       0          0
##  7       1013 2002-09-10    23     1      2       1       0          1
##  8       1014 2002-09-15    28     1      2       1       0          0
##  9       1015 2002-10-21    26     1      2       1       0          0
## 10       1016 2002-09-18    25     1      2       1       0          0
## # … with 1,855 more rows, and 12 more variables: mental <dbl>,
## #   abuse_child <dbl>, crime_history <fct>, violent <dbl>, extent <dbl>,
## #   terror_group <chr>, radicalization <dbl>, clique <dbl>,
## #   terror_type <fct>, year <dbl>, birth <dbl>, u40 <chr>
…
Aufgabe

Kodiere male in der folgenden Art und Weise und nenne die Variable male_label:

1 = “männlich” 2 = “weiblich”

Überschreibe start_pirus zeige den Datensatz!

start_pirus <- mutate(start_pirus, male_label = ifelse(male == 1, "male" ,"female"))
#darauf achten, dass bei strings ('Wörtern') Anführungsstriche gemacht werden müssen!

start_pirus 

## # A tibble: 1,865 x 20
##    subject_id date         age  male gender married student unemployed
##         <dbl> <date>     <dbl> <dbl>  <dbl>   <dbl>   <dbl>      <dbl>
##  1       1000 2002-05-08    32     1      2       1       1          0
##  2       1001 2001-11-25    20     1      2       0       1          0
##  3       1002 1997-05-01    28     1      2       1       0          0
##  4       1005 1993-04-10    25     1      2       1       0          0
##  5       1006 1993-03-04    25     1      2       0       0          0
##  6       1010 2003-03-01    27     1      2       1       0          0
##  7       1013 2002-09-10    23     1      2       1       0          1
##  8       1014 2002-09-15    28     1      2       1       0          0
##  9       1015 2002-10-21    26     1      2       1       0          0
## 10       1016 2002-09-18    25     1      2       1       0          0
## # … with 1,855 more rows, and 12 more variables: mental <dbl>,
## #   abuse_child <dbl>, crime_history <fct>, violent <dbl>, extent <dbl>,
## #   terror_group <chr>, radicalization <dbl>, clique <dbl>,
## #   terror_type <fct>, year <dbl>, birth <dbl>, male_label <chr>
…
2 = Previous (non-violent) serious criminal activity (e.g., convicted of a felony crime)

3 = Previous violent crime

start_pirus <- mutate(start_pirus, crime_history = case_when(
    crime_history == 0 ~ "None",
    crime_history == 1 ~ "Non-Violent",
    crime_history == 2 ~ "Non-Violent",
    crime_history == 3 ~ "Violent"
  )) 

start_pirus

## # A tibble: 1,865 x 20
##    subject_id date         age  male gender married student unemployed
##         <dbl> <date>     <dbl> <dbl>  <dbl>   <dbl>   <dbl>      <dbl>
##  1       1000 2002-05-08    32     1      2       1       1          0
##  2       1001 2001-11-25    20     1      2       0       1          0
##  3       1002 1997-05-01    28     1      2       1       0          0
##  4       1005 1993-04-10    25     1      2       1       0          0
##  5       1006 1993-03-04    25     1      2       0       0          0
##  6       1010 2003-03-01    27     1      2       1       0          0
##  7       1013 2002-09-10    23     1      2       1       0          1
##  8       1014 2002-09-15    28     1      2       1       0          0
##  9       1015 2002-10-21    26     1      2       1       0          0
## 10       1016 2002-09-18    25     1      2       1       0          0
## # … with 1,855 more rows, and 12 more variables: mental <dbl>,
## #   abuse_child <dbl>, crime_history <chr>, violent <dbl>, extent <dbl>,
## #   terror_group <chr>, radicalization <dbl>, clique <dbl>,
## #   terror_type <fct>, year <dbl>, birth <dbl>, male_label <chr>
Jede Bedingung untereinander gereiht und mit einem Komma getrennt. Wenn eine Bedingung ein TRUE Statement ist, dann wird mit dem ~ Operator der entsprechende Wert zugewiesen. Gibt man TRUE selbst an, so kann man “alle anderen” Ausprägungen, die nicht vorher abgefragt worden sind einen Wert zuweisen. Gibt man die Originalvariable an, so bleiben die restlichen Werte wie sie sind.

3.0.4 select

Mit select werden Spalten (=Vektoren/Variablen) mittels dem Variablennamen oder einer Hilfsfunktion ausgewählt.

Wählen wir wieder nur die zwei folgenden Variables aus:

age

gender

select(start_pirus , age, gender)

## # A tibble: 1,865 x 2
##      age gender
##    <dbl>  <dbl>
##  1    32      2
##  2    20      2
##  3    28      2
##  4    25      2
##  5    25      2
##  6    27      2
##  7    23      2
##  8    28      2
##  9    26      2
## 10    25      2
## # … with 1,855 more rows

Select eignet sich auch dafür Variablen aus einem bestehenden dataframe zu entfernen. Dies ist ganz einfach zu lösen mit einem - (Minus).

select(start_pirus , -age, -gender)

## # A tibble: 1,865 x 18
##    subject_id date        male married student unemployed mental
##         <dbl> <date>     <dbl>   <dbl>   <dbl>      <dbl>  <dbl>
##  1       1000 2002-05-08     1       1       1          0      0
##  2       1001 2001-11-25     1       0       1          0      0
##  3       1002 1997-05-01     1       1       0          0      0
##  4       1005 1993-04-10     1       1       0          0      0
##  5       1006 1993-03-04     1       0       0          0      0
##  6       1010 2003-03-01     1       1       0          0      0
##  7       1013 2002-09-10     1       1       0          1      0
##  8       1014 2002-09-15     1       1       0          0      0
##  9       1015 2002-10-21     1       1       0          0      0
## 10       1016 2002-09-18     1       1       0          0      0
## # … with 1,855 more rows, and 11 more variables: abuse_child <dbl>,
## #   crime_history <chr>, violent <dbl>, extent <dbl>, terror_group <chr>,
## #   radicalization <dbl>, clique <dbl>, terror_type <fct>, year <dbl>,
## #   birth <dbl>, male_label <chr>
Aufgaben

Wähle die folgende Variablen aus:

terror_group

terror_type

crime_history

Wähle alle Variablen außer student und age.

select(start_pirus , terror_group, terror_type, crime_history)

## # A tibble: 1,865 x 3
##    terror_group  terror_type crime_history
##    <chr>         <fct>       <chr>        
##  1 al-Qaeda core Islamism    <NA>         
##  2 Taliban       Islamism    <NA>         
##  3 al-Qaeda core Islamism    <NA>         
##  4 <NA>          Islamism    <NA>         
##  5 <NA>          Islamism    <NA>         
##  6 al-Qaeda core Islamism    <NA>         
##  7 al-Qaeda core Islamism    <NA>         
##  8 al-Qaeda core Islamism    <NA>         
##  9 al-Qaeda core Islamism    <NA>         
## 10 al-Qaeda core Islamism    <NA>         
## # … with 1,855 more rows

select(start_pirus , -student, -age)

## # A tibble: 1,865 x 18
##    subject_id date        male gender married unemployed mental abuse_child
##         <dbl> <date>     <dbl>  <dbl>   <dbl>      <dbl>  <dbl>       <dbl>
##  1       1000 2002-05-08     1      2       1          0      0           0
##  2       1001 2001-11-25     1      2       0          0      0           0
##  3       1002 1997-05-01     1      2       1          0      0           0
##  4       1005 1993-04-10     1      2       1          0      0           0
##  5       1006 1993-03-04     1      2       0          0      0           0
##  6       1010 2003-03-01     1      2       1          0      0           0
##  7       1013 2002-09-10     1      2       1          1      0           0
##  8       1014 2002-09-15     1      2       1          0      0           0
##  9       1015 2002-10-21     1      2       1          0      0           0
## 10       1016 2002-09-18     1      2       1          0      0           0
## # … with 1,855 more rows, and 10 more variables: crime_history <chr>,
## #   violent <dbl>, extent <dbl>, terror_group <chr>, radicalization <dbl>,
## #   clique <dbl>, terror_type <fct>, year <dbl>, birth <dbl>,
## #   male_label <chr>
…
>= größer gleich

<= kleiner gleich

3.0.6 rename

Variablen umbennen mit rename()

Mit rename() lassen sich die Variablen umbennen. Beispielhaft ?bersetzen wir terror_group, radicalization und terror_type Variablennamen ins Deutsche.

Beispiel:

rename(start_pirus, group = terror_group,  rad = radicalization,  ideology = terror_type)

## # A tibble: 1,865 x 20
##    subject_id date         age  male gender married student unemployed
##         <dbl> <date>     <dbl> <dbl>  <dbl>   <dbl>   <dbl>      <dbl>
##  1       1000 2002-05-08    32     1      2       1       1          0
##  2       1001 2001-11-25    20     1      2       0       1          0
##  3       1002 1997-05-01    28     1      2       1       0          0
##  4       1005 1993-04-10    25     1      2       1       0          0
##  5       1006 1993-03-04    25     1      2       0       0          0
##  6       1010 2003-03-01    27     1      2       1       0          0
##  7       1013 2002-09-10    23     1      2       1       0          1
##  8       1014 2002-09-15    28     1      2       1       0          0
##  9       1015 2002-10-21    26     1      2       1       0          0
## 10       1016 2002-09-18    25     1      2       1       0          0
## # … with 1,855 more rows, and 12 more variables: mental <dbl>,
## #   abuse_child <dbl>, crime_history <chr>, violent <dbl>, extent <dbl>,
## #   group <chr>, rad <dbl>, clique <dbl>, ideology <fct>, year <dbl>,
## #   birth <dbl>, male_label <chr>

Ist eine Abkürzung des folgenden Code:

start_pirus2 <- rename(start_pirus, group = terror_group)
start_pirus2 <- rename(start_pirus2, rad = radicalization)
start_pirus2 <- rename(start_pirus2, ideology = terror_type)

start_pirus2

## # A tibble: 1,865 x 20
##    subject_id date         age  male gender married student unemployed
##         <dbl> <date>     <dbl> <dbl>  <dbl>   <dbl>   <dbl>      <dbl>
##  1       1000 2002-05-08    32     1      2       1       1          0
##  2       1001 2001-11-25    20     1      2       0       1          0
##  3       1002 1997-05-01    28     1      2       1       0          0
##  4       1005 1993-04-10    25     1      2       1       0          0
##  5       1006 1993-03-04    25     1      2       0       0          0
##  6       1010 2003-03-01    27     1      2       1       0          0
##  7       1013 2002-09-10    23     1      2       1       0          1
##  8       1014 2002-09-15    28     1      2       1       0          0
##  9       1015 2002-10-21    26     1      2       1       0          0
## 10       1016 2002-09-18    25     1      2       1       0          0
## # … with 1,855 more rows, and 12 more variables: mental <dbl>,
## #   abuse_child <dbl>, crime_history <chr>, violent <dbl>, extent <dbl>,
## #   group <chr>, rad <dbl>, clique <dbl>, ideology <fct>, year <dbl>,
## #   birth <dbl>, male_label <chr>
…
Selektiere die folgenden Variablen

strong_believer

ideology

age

3.0.8 Variablen(-ausprägungen) zählen mit count, tabyl und tally

start_pirus %>% 
  count(terror_group, sort = T)

## # A tibble: 80 x 2
##    terror_group                                    n
##    <chr>                                       <int>
##  1 <NA>                                          730
##  2 Ku Klux Klan                                  148
##  3 Islamic State of Iraq and the Levant (ISIL)   146
##  4 Jewish Defense League (JDL)                    60
##  5 al-Shabaab                                     57
##  6 Weather Underground                            54
##  7 al-Qaeda core                                  51
##  8 Earth Liberation Front (ELF)                   44
##  9 Animal Liberation Front (ALF)                  36
## 10 Aryan Nations                                  36
## # … with 70 more rows
…
